﻿{"frames": {

"JADE":
{
	"frame": {"x":0,"y":802,"w":688,"h":900},
	"rotated": false,
	"trimmed": false,
	"spriteSourceSize": {"x":0,"y":0,"w":688,"h":900},
	"sourceSize": {"w":688,"h":900}
},
"decors":
{
	"frame": {"x":0,"y":0,"w":837,"h":800},
	"rotated": false,
	"trimmed": false,
	"spriteSourceSize": {"x":0,"y":0,"w":837,"h":800},
	"sourceSize": {"w":837,"h":800}
},
"glace":
{
	"frame": {"x":0,"y":1704,"w":76,"h":140},
	"rotated": false,
	"trimmed": false,
	"spriteSourceSize": {"x":0,"y":0,"w":76,"h":140},
	"sourceSize": {"w":76,"h":140}
}},
"meta": {
	"app": "Adobe Animate",
	"version": "18.0.1.115",
	"image": "FS_projet_CITIA_motion_2017_atlas_.png",
	"format": "RGB8",
	"size": {"w":1024,"h":2048},
	"scale": "1"
}
}
